{
  "project_info": {
    "project_number": "438429159986",
    "project_id": "onemart-f32b8",
    "storage_bucket": "onemart-f32b8.appspot.com"
  },
  "client": [
    {
      "client_info": {
        "mobilesdk_app_id": "1:438429159986:android:8b4367f8b881c42aa9e22b",
        "android_client_info": {
          "package_name": "com.flyerz.admin"
        }
      },
      "oauth_client": [
        {
          "client_id": "438429159986-nr1j9q7mm0taplfebchf8ok5un9914au.apps.googleusercontent.com",
          "client_type": 1,
          "android_info": {
            "package_name": "com.flyerz.admin",
            "certificate_hash": "4e7b5b08bc26b6440afc1fd2b5f0f38003d2ec01"
          }
        },
        {
          "client_id": "438429159986-vvrh6e91prqm71e7l1tp1bg1i2o3h3qd.apps.googleusercontent.com",
          "client_type": 3
        }
      ],
      "api_key": [
        {
          "current_key": "AIzaSyCwLN18fFEe8vIXvJNEc_zLnx3Pl9VbyWA"
        }
      ],
      "services": {
        "appinvite_service": {
          "other_platform_oauth_client": [
            {
              "client_id": "438429159986-vvrh6e91prqm71e7l1tp1bg1i2o3h3qd.apps.googleusercontent.com",
              "client_type": 3
            }
          ]
        }
      }
    },
    {
      "client_info": {
        "mobilesdk_app_id": "1:438429159986:android:4e9d7421662efc06a9e22b",
        "android_client_info": {
          "package_name": "com.flyerz.rider"
        }
      },
      "oauth_client": [
        {
          "client_id": "438429159986-0hup901aoh8a6gpa40t11jgmd1s0h7of.apps.googleusercontent.com",
          "client_type": 1,
          "android_info": {
            "package_name": "com.flyerz.rider",
            "certificate_hash": "7c1b3c0664812b5efa184f59e515fb18d30a1097"
          }
        },
        {
          "client_id": "438429159986-vvrh6e91prqm71e7l1tp1bg1i2o3h3qd.apps.googleusercontent.com",
          "client_type": 3
        }
      ],
      "api_key": [
        {
          "current_key": "AIzaSyCwLN18fFEe8vIXvJNEc_zLnx3Pl9VbyWA"
        }
      ],
      "services": {
        "appinvite_service": {
          "other_platform_oauth_client": [
            {
              "client_id": "438429159986-vvrh6e91prqm71e7l1tp1bg1i2o3h3qd.apps.googleusercontent.com",
              "client_type": 3
            }
          ]
        }
      }
    },
    {
      "client_info": {
        "mobilesdk_app_id": "1:438429159986:android:6859675b7e96e1dca9e22b",
        "android_client_info": {
          "package_name": "com.flyerz.seller"
        }
      },
      "oauth_client": [
        {
          "client_id": "438429159986-08klp2de57insla4cefo37lvvflmn81g.apps.googleusercontent.com",
          "client_type": 1,
          "android_info": {
            "package_name": "com.flyerz.seller",
            "certificate_hash": "4e7b5b08bc26b6440afc1fd2b5f0f38003d2ec01"
          }
        },
        {
          "client_id": "438429159986-vorbvu43knl59uia8mip42mvkjhpqi7n.apps.googleusercontent.com",
          "client_type": 1,
          "android_info": {
            "package_name": "com.flyerz.seller",
            "certificate_hash": "9e181556625bb8ae5622d29afd405f83ea7642de"
          }
        },
        {
          "client_id": "438429159986-vvrh6e91prqm71e7l1tp1bg1i2o3h3qd.apps.googleusercontent.com",
          "client_type": 3
        }
      ],
      "api_key": [
        {
          "current_key": "AIzaSyCwLN18fFEe8vIXvJNEc_zLnx3Pl9VbyWA"
        }
      ],
      "services": {
        "appinvite_service": {
          "other_platform_oauth_client": [
            {
              "client_id": "438429159986-vvrh6e91prqm71e7l1tp1bg1i2o3h3qd.apps.googleusercontent.com",
              "client_type": 3
            }
          ]
        }
      }
    },
    {
      "client_info": {
        "mobilesdk_app_id": "1:438429159986:android:c7240f413d0652c8a9e22b",
        "android_client_info": {
          "package_name": "com.flyerz.user"
        }
      },
      "oauth_client": [
        {
          "client_id": "438429159986-53h3of10qtq1v5vk3p5aq3pvn4scknl0.apps.googleusercontent.com",
          "client_type": 1,
          "android_info": {
            "package_name": "com.flyerz.user",
            "certificate_hash": "662e7b257bf01563aefb86cf2cab8ee2c9ce9f34"
          }
        },
        {
          "client_id": "438429159986-cpvtlp4r5uvge4ts68hio5heio5v80oh.apps.googleusercontent.com",
          "client_type": 1,
          "android_info": {
            "package_name": "com.flyerz.user",
            "certificate_hash": "4e7b5b08bc26b6440afc1fd2b5f0f38003d2ec01"
          }
        },
        {
          "client_id": "438429159986-vvrh6e91prqm71e7l1tp1bg1i2o3h3qd.apps.googleusercontent.com",
          "client_type": 3
        }
      ],
      "api_key": [
        {
          "current_key": "AIzaSyCwLN18fFEe8vIXvJNEc_zLnx3Pl9VbyWA"
        }
      ],
      "services": {
        "appinvite_service": {
          "other_platform_oauth_client": [
            {
              "client_id": "438429159986-vvrh6e91prqm71e7l1tp1bg1i2o3h3qd.apps.googleusercontent.com",
              "client_type": 3
            }
          ]
        }
      }
    }
  ],
  "configuration_version": "1"
}